<?xml version="1.0" encoding="UTF-8"?>
<session version="1.0">
<refactoring comment="Copy element &apos;pom.xml&apos; to &apos;registration&apos;&#x0A;- Original project: &apos;demo (3)&apos;&#x0A;- Destination element: &apos;registration&apos;&#x0A;- Original element: &apos;pom.xml&apos;" description="Copy file" element1="pom.xml" files="1" flags="589830" folders="0" id="org.eclipse.jdt.ui.copy" policy="org.eclipse.jdt.ui.copyResources" stamp="1558332268884" target="/registration" units="0" version="1.0"/>
</session>