127.0.0.1 - - [01/Aug/2019:20:38:51 +0530] "HEAD /netbeans-tomcat-status-test HTTP/1.1" 404 -
127.0.0.1 - - [01/Aug/2019:20:38:51 +0530] "HEAD /netbeans-tomcat-status-test HTTP/1.1" 404 -
127.0.0.1 - - [01/Aug/2019:20:38:51 +0530] "GET /manager/text/ HTTP/1.1" 401 2499
127.0.0.1 - root [01/Aug/2019:20:38:54 +0530] "GET /manager/text/ HTTP/1.1" 200 38
127.0.0.1 - - [01/Aug/2019:20:38:54 +0530] "HEAD /netbeans-tomcat-status-test HTTP/1.1" 404 -
127.0.0.1 - root [01/Aug/2019:20:38:54 +0530] "GET /manager/text/ HTTP/1.1" 200 38
127.0.0.1 - - [01/Aug/2019:20:38:54 +0530] "HEAD /netbeans-tomcat-status-test HTTP/1.1" 404 -
127.0.0.1 - root [01/Aug/2019:20:38:54 +0530] "GET /manager/text/ HTTP/1.1" 200 38
127.0.0.1 - - [01/Aug/2019:20:38:54 +0530] "HEAD /netbeans-tomcat-status-test HTTP/1.1" 404 -
127.0.0.1 - root [01/Aug/2019:20:38:54 +0530] "GET /manager/text/ HTTP/1.1" 200 38
