<?xml version="1.0" encoding="UTF-8"?>
<session version="1.0">
<refactoring accessors="true" comment="Delete element from project &apos;demo (3)&apos;&#x0A;- Original project: &apos;demo (3)&apos;&#x0A;- Original element: &apos;com.example.demo.model.Login.java&apos;" description="Delete element" element1="/src\/main\/java&lt;com.example.demo.model{Login.java" elements="1" flags="589830" id="org.eclipse.jdt.ui.delete" resources="0" stamp="1557739687300" subPackages="false" version="1.0"/>
</session>